outputs/dma.vcd
$date
	Thu May 14 21:10:46 2026
$end
$version
	Questa Altera Starter FPGA Edition Version 2025.2
$end
$timescale
	1ns
$end

$scope module tb_top $end

$scope module vif $end
$var wire 1 ! clk $end
$var wire 1 " rst_n $end
$var reg 32 # src_addr [31:0] $end
$var reg 32 $ dst_addr [31:0] $end
$var reg 16 % size [15:0] $end
$var reg 1 & valid $end
$var reg 1 ' ready $end
$upscope $end
$upscope $end
$enddefinitions $end
#0
$dumpvars
bx #
bx $
bx %
0&
0'
0"
0!
$end
#5
1!
#10
0!
#15
1!
#20
1"
0!
#25
1!
b1011111010000011100101110101100 #
b10011011010100011100100100001000 $
b1110000 %
1&
1'
#30
0!
#35
1!
0&
0'
#40
0!
#45
1!
b11110100011011001110111111100000 #
b10111101010010110111011111001000 $
b11100011 %
1&
#50
0!
#55
1!
#60
0!
#65
1!
#70
0!
#75
1!
#80
0!
#85
1!
1'
#90
0!
#95
1!
0&
#100
0!
#105
1!
b1101000100111010101010100100 #
b10101000101011100000001011100000 $
b1111011 %
1&
0'
#110
0!
#115
1!
1'
#120
0!
#125
1!
0&
#130
0!
#135
1!
b101010011010111001010100101100 #
b1000001110010000001101111000000 $
b1011110 %
1&
#140
0!
#145
1!
0&
#150
0!
#155
1!
b10011010001001011001111001001100 #
b1010011011000000111110000111100 $
b1000 %
1&
0'
#160
0!
#165
1!
#170
0!
#175
1!
#180
0!
#185
1!
#190
0!
#195
1!
#200
0!
#205
1!
#210
0!
#215
1!
1'
#220
0!
#225
1!
0&
#230
0!
#235
1!
b110001011011111011000110011100 #
b11100001011100100000110011111000 $
b10000110 %
1&
#240
0!
#245
1!
0&
0'
#250
0!
#255
1!
b101001011111001011111010001100 #
b11110011100010001111101011001100 $
b11111101 %
1&
#260
0!
#265
1!
1'
#270
0!
#275
1!
0&
#280
0!
#285
1!
b1000001010011111011111001000 #
b10101100101111000111101100000 $
b10011010 %
1&
0'
#290
0!
#295
1!
#300
0!
#305
1!
1'
#310
0!
#315
1!
0&
0'
#320
0!
#325
1!
b11100001110111011101010011000 #
b10011000110011111010011101010100 $
b11001000 %
1&
1'
#330
0!
#335
1!
0&
#340
0!
#345
1!
b10110111101110010010110001010000 #
b1111011110011111110000100011000 $
b1000110 %
1&
0'
#350
0!
#355
1!
#360
0!
#365
1!
1'
#370
0!
#375
1!
0&
0'
#380
0!
#385
1!
b1100011010110001100000111010100 #
b11111100110111110100100100 $
b101 %
1&
#390
0!
#395
1!
#400
0!
#405
1!
1'
#410
0!
#415
1!
0&
0'
#420
0!
#425
1!
b1011011001100001100011100111100 #
b101001011010000001110010000000 $
b10100001 %
1&
1'
#430
0!
#435
1!
0&
0'
#440
0!
#445
1!
b11101010111011101010010100010000 #
b111000111011000011000110111000 $
b1111010 %
1&
#450
0!
#455
1!
1'
#460
0!
#465
1!
0&
#470
0!
#475
1!
b11010001010110101010100111000 #
b11111000010000100101111100001100 $
b11001101 %
1&
0'
#480
0!
#485
1!
1'
#490
0!
#495
1!
0&
#500
0!
#505
1!
b10011011111101101001010111100000 #
b1010011010110110110001001111000 $
b11100110 %
1&
0'
#510
0!
#515
1!
1'
#520
0!
#525
1!
0&
0'
#530
0!
#535
1!
b11000111011010001101111101111000 #
b11010101111011100011110000111000 $
b110101 %
1&
1'
#540
0!
#545
1!
0&
#550
0!
#555
1!
b10110100110011110010000001100000 #
b10010110111101001100011000011100 $
b1111010 %
1&
#560
0!
#565
1!
0&
0'
#570
0!
#575
1!
b1101011100010011001010100000000 #
b10111101111100010010111011000100 $
b10111101 %
1&
#580
0!
#585
1!
#590
0!
#595
1!
1'
#600
0!
#605
1!
0&
0'
#610
0!
#615
1!
b1101001011001000110101010001000 #
b10110010010101011010010010100 $
b10001000 %
1&
1'
#620
0!
#625
1!
0&
#630
0!
#635
1!
b10001100001101011001100101011000 #
b10010010010010011000010001000000 $
b100 %
1&
#640
0!
#645
1!
0&
0'
#650
0!
#655
1!
b11110000010101100000000101000100 #
b1110011110011000111101011101000 $
b1101 %
1&
1'
#660
0!
#665
1!
0&
#670
0!
#675
1!
b11001101100011100010000101000 #
b11100100110011010000010001000 $
b10100001 %
1&
#680
0!
#685
1!
0&
0'
#690
0!
#695
1!
b10101110001111111010111100010000 #
b11011011111111011011000101001000 $
b1000101 %
1&
#700
0!
#705
1!
#710
0!
#715
1!
1'
#720
0!
#725
1!
0&
0'
#730
0!
#735
1!
b1101100001111100111010010010100 #
b101110110111001101010011100000 $
1&
1'
#740
0!
#745
1!
0&
0'
#750
0!
#755
1!
b11110111111010001001001010001000 #
b1011111111011011000111101001000 $
b10010100 %
1&
1'
#760
0!
#765
1!
0&
0'
#770
0!
#775
1!
b10110001000010111011010110110000 #
b10101100000011011101010001100 $
b110101 %
1&
1'
#780
0!
#785
1!
0&
0'
#790
0!
#795
1!
b100111101111100010010010100000 #
b11001011111000111101111011011000 $
b110000 %
1&
1'
#800
0!
#805
1!
0&
#810
0!
#815
1!
b110101101000001001100010001000 #
b101011001010100000001101001100 $
b10010110 %
1&
#820
0!
#825
1!
0&
#830
0!
#835
1!
b101101001000011101111000000100 #
b10000101111110010110011111010000 $
b10000011 %
1&
#840
0!
#845
1!
0&
0'
#850
0!
#855
1!
b110101011110010001110011110000 #
b11010101011011101000000111001100 $
b111010 %
1&
#860
0!
#865
1!
1'
#870
0!
#875
1!
0&
#880
0!
#885
1!
b11101100101110100000001110000 #
b11011000001111011000101000 $
b11010010 %
1&
0'
#890
0!
#895
1!
#900
0!
#905
1!
#910
0!
#915
1!
#920
0!
#925
1!
1'
#930
0!
#935
1!
0&
0'
#940
0!
#945
1!
b11011111010001110111001011001100 #
b111100010111101101000100001100 $
b10001 %
1&
#950
0!
#955
1!
1'
#960
0!
#965
1!
0&
#970
0!
#975
1!
b1110100001110000101010110011100 #
b100111101001101111111100000000 $
b1011111 %
1&
0'
#980
0!
#985
1!
1'
#990
0!
#995
1!
0&
0'
#1000
0!
#1005
1!
b101001001001001001111011100 #
b101011100111110100000000110000 $
b11000010 %
1&
1'
#1010
0!
#1015
1!
0&
#1020
0!
#1025
1!
b10001110101011110110110001001000 #
b110110101001100101101001000100 $
b11010 %
1&
#1030
0!
#1035
1!
0&
#1040
0!
#1045
1!
b10110100011000100111010001001100 #
b100100101000101100100010010000 $
b101101 %
1&
#1050
0!
#1055
1!
0&
#1060
0!
#1065
1!
b11010010010101000011001101001000 #
b11010011000001000011110111011000 $
b10111010 %
1&
#1070
0!
#1075
1!
0&
#1080
0!
#1085
1!
b11011110010111101010001011001000 #
b101001001011100011011101000000 $
b10001110 %
1&
0'
#1090
0!
#1095
1!
1'
#1100
0!
#1105
1!
0&
0'
#1110
0!
#1115
1!
b10100000111001110101111011011000 #
b100100001001101100100001101000 $
b10011101 %
1&
1'
#1120
0!
#1125
1!
0&
0'
#1130
0!
#1135
1!
b1011110000100101000010000001000 #
b10100010100100101110111011110000 $
b11101111 %
1&
1'
#1140
0!
#1145
1!
0&
0'
#1150
0!
#1155
1!
b1001010000000001011010111100000 #
b1000100011010111101000101011100 $
b11110100 %
1&
#1160
0!
#1165
1!
1'
#1170
0!
#1175
1!
0&
0'
#1180
0!
#1185
1!
b1011011000100010001100100000000 #
b11110010001100101111000010101100 $
b10111101 %
1&
#1190
0!
#1195
1!
#1200
0!
#1205
1!
#1210
0!
#1215
1!
1'
#1220
0!
#1225
1!
0&
#1230
0!
#1235
1!
b11011011100011000000001100000100 #
b11100100111000100100011101001000 $
b1001101 %
1&
#1240
0!
#1245
1!
0&
0'
#1250
0!
#1255
1!
b10010110010111001001000111000100 #
b10101110111101110110000111011000 $
b10100110 %
1&
1'
#1260
0!
#1265
1!
0&
#1270
0!
#1275
1!
b10110001001001111111111000 #
b1110100010101000110001001001100 $
b10101011 %
1&
0'
#1280
0!
#1285
1!
1'
#1290
0!
#1295
1!
0&
0'
#1300
0!
#1305
1!
b1001111011000011110010010111000 #
b10101011101111001011000001011100 $
b10001101 %
1&
1'
#1310
0!
#1315
1!
0&
0'
#1320
0!
#1325
1!
b111100101000001000010001001100 #
b11010001110110101100101110101100 $
b111010 %
1&
#1330
0!
#1335
1!
#1340
0!
#1345
1!
1'
#1350
0!
#1355
1!
0&
0'
#1360
0!
#1365
1!
b11110000110000000001100000100000 #
b11100100101010000001001001001000 $
b10010110 %
1&
1'
#1370
0!
#1375
1!
0&
#1380
0!
#1385
1!
b10000101010001100110010010101000 #
b1011111101001000100011000000100 $
b1111110 %
1&
#1390
0!
#1395
1!
0&
0'
#1400
0!
#1405
1!
b11001100010000000011010000100 #
b101001011111101101000100010100 $
b10011011 %
1&
1'
#1410
0!
#1415
1!
0&
#1420
0!
#1425
1!
b1100010000001111011010011001000 #
b1100000110010000100010111010100 $
b1001001 %
1&
#1430
0!
#1435
1!
0&
0'
#1440
0!
#1445
1!
b11100011011001010000010110110000 #
b10111011011000111001010000001000 $
b11011 %
1&
1'
#1450
0!
#1455
1!
0&
#1460
0!
#1465
1!
b1010001111001011011010100001100 #
b11110100000000100010110000110100 $
b10110101 %
1&
#1470
0!
#1475
1!
0&
0'
#1480
0!
#1485
1!
b1101111101011000011010011110100 #
b10001011100001000100001101000100 $
b111010 %
1&
1'
#1490
0!
#1495
1!
0&
0'
#1500
0!
#1505
1!
b1000001011011100001100100000 #
b111101100111111000011111011000 $
b1111000 %
1&
#1510
0!
#1515
1!
#1520
0!
#1525
1!
1'
#1530
0!
#1535
1!
0&
#1540
0!
#1545
1!
b10001011110110010111111101101000 #
b10100100000011011111011001000 $
b1001 %
1&
#1550
0!
#1555
1!
0&
#1560
0!
#1565
1!
b110011111011101000000111100100 #
b1010001100111100000100111010100 $
b10111111 %
1&
0'
#1570
0!
#1575
1!
#1580
0!
#1585
1!
1'
#1590
0!
#1595
1!
0&
#1600
0!
#1605
1!
b1100110010001110110101110110100 #
b11001101101010110110101101100 $
b11100101 %
1&
0'
#1610
0!
#1615
1!
#1620
0!
#1625
1!
#1630
0!
#1635
1!
1'
#1640
0!
#1645
1!
0&
#1650
0!
#1655
1!
b10110100001001111111100101111000 #
b10001110000100010001010101000100 $
b1111010 %
1&
0'
#1660
0!
#1665
1!
1'
#1670
0!
#1675
1!
0&
#1680
0!
#1685
1!
b1100111111000010010001110111100 #
b10001111001110010000110001100000 $
b110111 %
1&
#1690
0!
#1695
1!
0&
0'
#1700
0!
#1705
1!
b1011111001100001100010011110100 #
b10011111001010110001010111110000 $
b111001 %
1&
1'
#1710
0!
#1715
1!
0&
#1720
0!
#1725
1!
b1000000100110001010001011010100 #
b111111001110010110001001001100 $
b11101111 %
1&
0'
#1730
0!
#1735
1!
#1740
0!
#1745
1!
1'
#1750
0!
#1755
1!
0&
#1760
0!
#1765
1!
b10110011000100100110110111011000 #
b1111011100001010110101111010000 $
b11010001 %
1&
0'
#1770
0!
#1775
1!
1'
#1780
0!
#1785
1!
0&
0'
#1790
0!
#1795
1!
b11001111101011011110100010001100 #
b1111101110111000001111110011100 $
b10111000 %
1&
#1800
0!
#1805
1!
1'
#1810
0!
#1815
1!
0&
#1820
0!
#1825
1!
b1011010101001001101100101110100 #
b11000111101110010001011111101100 $
b11000000 %
1&
0'
#1830
0!
#1835
1!
1'
#1840
0!
#1845
1!
0&
#1850
0!
#1855
1!
b1010001011111110001100011101000 #
b10101111100100011101111000110000 $
b10000111 %
1&
0'
#1860
0!
#1865
1!
1'
#1870
0!
#1875
1!
0&
#1880
0!
#1885
1!
b11000001110110101010111010100100 #
b11010111111011000010011110100000 $
b11101111 %
1&
#1890
0!
#1895
1!
0&
#1900
0!
#1905
1!
b11110110110101001001111010000000 #
b1101101000101110000001101000 $
b10001 %
1&
0'
#1910
0!
#1915
1!
#1920
0!
#1925
1!
1'
#1930
0!
#1935
1!
0&
#1940
0!
#1945
1!
b11010100000110100010001001100 #
b101001011101011001011111000 $
b11110011 %
1&
0'
#1950
0!
#1955
1!
#1960
0!
#1965
1!
1'
#1970
0!
#1975
1!
0&
0'
#1980
0!
#1985
1!
b10101101111001011100011100010000 #
b11010011000010000011101111000 $
b11010000 %
1&
#1990
0!
#1995
1!
1'
#2000
0!
#2005
1!
0&
#2010
0!
#2015
1!
b1100100000010101100001001000100 #
b11000011100001111100011010100000 $
b11101100 %
1&
0'
#2020
0!
#2025
1!
#2030
0!
#2035
1!
1'
#2040
0!
#2045
1!
0&
0'
#2050
0!
#2055
1!
b10100110001000100100101111000000 #
b1101011001000111010110101010000 $
b10111111 %
1&
1'
#2060
0!
#2065
1!
0&
0'
#2070
0!
#2075
1!
b11011001010000101010101100010100 #
b11110000010110000110101000100100 $
b1000110 %
1&
1'
#2080
0!
#2085
1!
0&
0'
#2090
0!
#2095
1!
b11110110100011110000001001001100 #
b10001001010101110111001010101100 $
b11101110 %
1&
1'
#2100
0!
#2105
1!
0&
0'
#2110
0!
#2115
1!
b1001101000101100100100001101000 #
b11110100011100001011011111100 $
b1100001 %
1&
1'
#2120
0!
#2125
1!
0&
#2130
0!
#2135
1!
b101011100110100000110101001100 #
b11011010101010111101010001100100 $
b1101 %
1&
0'
#2140
0!
#2145
1!
1'
#2150
0!
#2155
1!
0&
0'
#2160
0!
#2165
1!
b11101110101100011100000111001000 #
b111001100000110111001110000 $
b10110001 %
1&
#2170
0!
#2175
1!
1'
#2180
0!
#2185
1!
0&
0'
#2190
0!
#2195
1!
b1101001110011001110010001011000 #
b1001011011101010111110101001100 $
b10000101 %
1&
1'
#2200
0!
#2205
1!
0&
0'
#2210
0!
#2215
1!
b1111001010101001101011101110100 #
b10110010001100001011000110110000 $
b10001001 %
1&
1'
#2220
0!
#2225
1!
0&
0'
#2230
0!
#2235
1!
b10110111001110001110010001101000 #
b10010010111000010011110111011100 $
b11001011 %
1&
#2240
0!
#2245
1!
1'
#2250
0!
#2255
1!
0&
#2260
0!
#2265
1!
b101011000001010110010011010000 #
b1001000111000000010101110110100 $
b1011100 %
1&
#2270
0!
#2275
1!
0&
0'
#2280
0!
#2285
1!
b10101000101111000110110000101100 #
b11100010101111001110111011000100 $
b11111100 %
1&
1'
#2290
0!
#2295
1!
0&
0'
#2300
0!
#2305
1!
b11001000110110010111101100100000 #
b11111011101111100011001111000100 $
b11110 %
1&
#2310
0!
#2315
1!
#2320
0!
#2325
1!
#2330
0!
#2335
1!
1'
#2340
0!
#2345
1!
0&
0'
#2350
0!
#2355
1!
b1010000101000001010110010000100 #
b100001011101011001011111101100 $
b101101 %
1&
1'
#2360
0!
#2365
1!
0&
#2370
0!
#2375
1!
b10101101001110111011101101101100 #
b11111100100000110000111100001100 $
b11010011 %
1&
#2380
0!
#2385
1!
0&
0'
#2390
0!
#2395
1!
b1000111001000110101001010011100 #
b10010000001101110100001100110000 $
b10110001 %
1&
1'
#2400
0!
#2405
1!
0&
0'
#2410
0!
#2415
1!
b11000011111110010001101100111000 #
b1110000011011000101000011010000 $
b100010 %
1&
#2420
0!
#2425
1!
1'
#2430
0!
#2435
1!
0&
#2440
0!
#2445
1!
b101000010001001000010001000100 #
b10001110110010101100100010011000 $
b1011001 %
1&
0'
#2450
0!
#2455
1!
#2460
0!
#2465
1!
1'
#2470
0!
#2475
1!
0&
0'
#2480
0!
#2485
1!
b10110111001100110100000010010000 #
b11111010011011101010111011110100 $
b1101100 %
1&
#2490
0!
#2495
1!
1'
#2500
0!
#2505
1!
0&
0'
#2510
0!
#2515
1!
b11100110011010000110111111011100 #
b11111010111110001110010011001100 $
b10001100 %
1&
1'
#2520
0!
#2525
1!
0&
0'
#2530
0!
#2535
1!
b11101000110101100110101100100000 #
b1100101010001010001010100010100 $
b1101100 %
1&
#2540
0!
#2545
1!
1'
#2550
0!
#2555
1!
0&
#2560
0!
#2565
1!
b100110000111101101101100110000 #
b11011001011110010111001001101000 $
b10001111 %
1&
0'
#2570
0!
#2575
1!
#2580
0!
#2585
1!
1'
#2590
0!
#2595
1!
0&
#2600
0!
#2605
1!
b11010101110011110000101101010100 #
b11010110001001001111011010011100 $
b11 %
1&
#2610
0!
#2615
1!
0&
0'
#2620
0!
#2625
1!
b11001001000001011010000100100100 #
b1111110000001100110110110111000 $
b111 %
1&
1'
#2630
0!
#2635
1!
0&
0'
#2640
0!
#2645
1!
b10111111011110001010001111000000 #
b1110000100100101001011001100100 $
b10000010 %
1&
1'
#2650
0!
#2655
1!
0&
#2660
0!
#2665
1!
b10101111011111011000101110101100 #
b10111110110000100001001010000000 $
b110110 %
1&
#2670
0!
#2675
1!
0&
#2680
0!
#2685
1!
b100110110010100000111000000100 #
b101100101100101011011110101100 $
b111111 %
1&
#2690
0!
#2695
1!
0&
#2700
0!
#2705
1!
b1100101011100000000100100101000 #
b10111111110001000011001110111000 $
b11110001 %
1&
0'
#2710
0!
#2715
1!
1'
#2720
0!
#2725
1!
0&
#2730
0!
#2735
1!
b1011100001111011100001110010000 #
b1111111110110100010100011010100 $
b11011001 %
1&
#2740
0!
#2745
1!
0&
#2750
0!
#2755
1!
b10001011101000110101101110111000 #
b101101010101011100100011010000 $
b101000 %
1&
0'
#2760
0!
#2765
1!
#2770
0!
#2775
1!
1'
#2780
0!
#2785
1!
0&
#2790
0!
#2795
1!
0'
#2800
0!
#2805
1!
#2810
0!
#2815
1!
#2820
0!
#2825
1!
1'
#2830
0!
#2835
1!
0'
