outputs/transcript.log
# ** Note: (vsim-220) '/mnt/storage_A/eda_tools/questa-quartus/questa_fse/linux_x86_64/../modelsim.ini' is used as the ini file.
# vsim -c -l transcript.log -L mtiUvm work.tb_top "+UVM_TESTNAME=dma_test" -do "run -all; quit" 
# Start time: 12:08:46 on May 15,2026
# ** Note: (vsim-3813) Design is being optimized due to module recompilation...
# ** Note: (vopt-220) '/mnt/storage_A/eda_tools/questa-quartus/questa_fse/linux_x86_64/../modelsim.ini' is used as the ini file.
# //  Questa Altera Starter FPGA Edition-64
# //  Version 2025.2 linux_x86_64 May 31 2025
# //
# // Unpublished work. Copyright 2025 Siemens
# //
# // This material contains trade secrets or otherwise confidential information
# // owned by Siemens Industry Software Inc. or its affiliates (collectively,
# // "SISW"), or its licensors. Access to and use of this information is strictly
# // limited as set forth in the Customer's applicable agreements with SISW.
# //
# // This material may not be copied, distributed, or otherwise disclosed outside
# // of the Customer's facilities without the express written permission of SISW,
# // and may not be used in any way not expressly authorized by SISW.
# //
# Loading sv_std.std
# Loading work.dma_if(fast)
# Loading mtiUvm.uvm_pkg(fast)
# Loading work.dma_pkg(fast)
# Loading work.testbench_sv_unit(fast)
# Loading mtiUvm.questa_uvm_pkg(fast)
# Loading work.tb_top(fast)
# Loading /mnt/storage_A/eda_tools/questa-quartus/questa_fse/uvm-1.1d/linux_x86_64/uvm_dpi.so
# run -all
# ----------------------------------------------------------------
# UVM-1.1d
# (C) 2007-2013 Mentor Graphics Corporation
# (C) 2007-2013 Cadence Design Systems, Inc.
# (C) 2006-2013 Synopsys, Inc.
# (C) 2011-2013 Cypress Semiconductor Corp.
# ----------------------------------------------------------------
# 
#   ***********       IMPORTANT RELEASE NOTES         ************
# 
#   You are using a version of the UVM library that has been compiled
#   with `UVM_NO_DEPRECATED undefined.
#   See http://www.eda.org/svdb/view.php?id=3313 for more details.
# 
#   You are using a version of the UVM library that has been compiled
#   with `UVM_OBJECT_MUST_HAVE_CONSTRUCTOR undefined.
#   See http://www.eda.org/svdb/view.php?id=3770 for more details.
# 
#       (Specify +UVM_NO_RELNOTES to turn off this notice)
# 
# UVM_INFO verilog_src/questa_uvm_pkg-1.2/src/questa_uvm_pkg.sv(277) @ 0: reporter [Questa UVM] QUESTA_UVM-1.2.3
# UVM_INFO verilog_src/questa_uvm_pkg-1.2/src/questa_uvm_pkg.sv(278) @ 0: reporter [Questa UVM]  questa_uvm::init(+struct)
# UVM_INFO @ 0: reporter [RNTST] Running test dma_test...
# UVM_INFO dma_seq.sv(10) @ 0: uvm_test_top.env.agt.sqr@@seq [SEQ] Pumping 100 Transactions (Starter Edition Bypass)...
# UVM_INFO dma_driver.sv(28) @ 25: uvm_test_top.env.agt.drv [DRV] Driving -> SRC: 0x5f41cbac | DST: 0x9b51c908 | SIZE: 112
# UVM_INFO dma_driver.sv(28) @ 45: uvm_test_top.env.agt.drv [DRV] Driving -> SRC: 0xf46cefe0 | DST: 0xbd4b77c8 | SIZE: 227
# UVM_INFO dma_driver.sv(28) @ 105: uvm_test_top.env.agt.drv [DRV] Driving -> SRC: 0x0d13aaa4 | DST: 0xa8ae02e0 | SIZE: 123
# UVM_INFO dma_driver.sv(28) @ 135: uvm_test_top.env.agt.drv [DRV] Driving -> SRC: 0x2a6b952c | DST: 0x41c81bc0 | SIZE: 94
# UVM_INFO dma_driver.sv(28) @ 155: uvm_test_top.env.agt.drv [DRV] Driving -> SRC: 0x9a259e4c | DST: 0x53607c3c | SIZE: 8
# UVM_INFO dma_driver.sv(28) @ 235: uvm_test_top.env.agt.drv [DRV] Driving -> SRC: 0x316fb19c | DST: 0xe1720cf8 | SIZE: 134
# UVM_INFO dma_driver.sv(28) @ 255: uvm_test_top.env.agt.drv [DRV] Driving -> SRC: 0x297cbe8c | DST: 0xf388facc | SIZE: 253
# UVM_INFO dma_driver.sv(28) @ 285: uvm_test_top.env.agt.drv [DRV] Driving -> SRC: 0x0829f7c8 | DST: 0x15978f60 | SIZE: 154
# UVM_INFO dma_driver.sv(28) @ 325: uvm_test_top.env.agt.drv [DRV] Driving -> SRC: 0x1c3bba98 | DST: 0x98cfa754 | SIZE: 200
# UVM_INFO dma_driver.sv(28) @ 345: uvm_test_top.env.agt.drv [DRV] Driving -> SRC: 0xb7b92c50 | DST: 0x7bcfe118 | SIZE: 70
# UVM_INFO dma_driver.sv(28) @ 385: uvm_test_top.env.agt.drv [DRV] Driving -> SRC: 0x6358c1d4 | DST: 0x03f37d24 | SIZE: 5
# UVM_INFO dma_driver.sv(28) @ 425: uvm_test_top.env.agt.drv [DRV] Driving -> SRC: 0x5b30c73c | DST: 0x29681c80 | SIZE: 161
# UVM_INFO dma_driver.sv(28) @ 445: uvm_test_top.env.agt.drv [DRV] Driving -> SRC: 0xeaeea510 | DST: 0x38ec31b8 | SIZE: 122
# UVM_INFO dma_driver.sv(28) @ 475: uvm_test_top.env.agt.drv [DRV] Driving -> SRC: 0x1a2b5538 | DST: 0xf8425f0c | SIZE: 205
# UVM_INFO dma_driver.sv(28) @ 505: uvm_test_top.env.agt.drv [DRV] Driving -> SRC: 0x9bf695e0 | DST: 0x535b6278 | SIZE: 230
# UVM_INFO dma_driver.sv(28) @ 535: uvm_test_top.env.agt.drv [DRV] Driving -> SRC: 0xc768df78 | DST: 0xd5ee3c38 | SIZE: 53
# UVM_INFO dma_driver.sv(28) @ 555: uvm_test_top.env.agt.drv [DRV] Driving -> SRC: 0xb4cf2060 | DST: 0x96f4c61c | SIZE: 122
# UVM_INFO dma_driver.sv(28) @ 575: uvm_test_top.env.agt.drv [DRV] Driving -> SRC: 0x6b899500 | DST: 0xbdf12ec4 | SIZE: 189
# UVM_INFO dma_driver.sv(28) @ 615: uvm_test_top.env.agt.drv [DRV] Driving -> SRC: 0x69646a88 | DST: 0x164ab494 | SIZE: 136
# UVM_INFO dma_driver.sv(28) @ 635: uvm_test_top.env.agt.drv [DRV] Driving -> SRC: 0x8c359958 | DST: 0x92498440 | SIZE: 4
# UVM_INFO dma_driver.sv(28) @ 655: uvm_test_top.env.agt.drv [DRV] Driving -> SRC: 0xf0560144 | DST: 0x73cc7ae8 | SIZE: 13
# UVM_INFO dma_driver.sv(28) @ 675: uvm_test_top.env.agt.drv [DRV] Driving -> SRC: 0x19b1c428 | DST: 0x1c99a088 | SIZE: 161
# UVM_INFO dma_driver.sv(28) @ 695: uvm_test_top.env.agt.drv [DRV] Driving -> SRC: 0xae3faf10 | DST: 0xdbfdb148 | SIZE: 69
# UVM_INFO dma_driver.sv(28) @ 735: uvm_test_top.env.agt.drv [DRV] Driving -> SRC: 0x6c3e7494 | DST: 0x2edcd4e0 | SIZE: 69
# UVM_INFO dma_driver.sv(28) @ 755: uvm_test_top.env.agt.drv [DRV] Driving -> SRC: 0xf7e89288 | DST: 0x5fed8f48 | SIZE: 148
# UVM_INFO dma_driver.sv(28) @ 775: uvm_test_top.env.agt.drv [DRV] Driving -> SRC: 0xb10bb5b0 | DST: 0x1581ba8c | SIZE: 53
# UVM_INFO dma_driver.sv(28) @ 795: uvm_test_top.env.agt.drv [DRV] Driving -> SRC: 0x27be24a0 | DST: 0xcbe3ded8 | SIZE: 48
# UVM_INFO dma_driver.sv(28) @ 815: uvm_test_top.env.agt.drv [DRV] Driving -> SRC: 0x35a09888 | DST: 0x2b2a034c | SIZE: 150
# UVM_INFO dma_driver.sv(28) @ 835: uvm_test_top.env.agt.drv [DRV] Driving -> SRC: 0x2d21de04 | DST: 0x85f967d0 | SIZE: 131
# UVM_INFO dma_driver.sv(28) @ 855: uvm_test_top.env.agt.drv [DRV] Driving -> SRC: 0x35791cf0 | DST: 0xd56e81cc | SIZE: 58
# UVM_INFO dma_driver.sv(28) @ 885: uvm_test_top.env.agt.drv [DRV] Driving -> SRC: 0x1d974070 | DST: 0x0360f628 | SIZE: 210
# UVM_INFO dma_driver.sv(28) @ 945: uvm_test_top.env.agt.drv [DRV] Driving -> SRC: 0xdf4772cc | DST: 0x3c5ed10c | SIZE: 17
# UVM_INFO dma_driver.sv(28) @ 975: uvm_test_top.env.agt.drv [DRV] Driving -> SRC: 0x7438559c | DST: 0x27a6ff00 | SIZE: 95
# UVM_INFO dma_driver.sv(28) @ 1005: uvm_test_top.env.agt.drv [DRV] Driving -> SRC: 0x052493dc | DST: 0x2b9f4030 | SIZE: 194
# UVM_INFO dma_driver.sv(28) @ 1025: uvm_test_top.env.agt.drv [DRV] Driving -> SRC: 0x8eaf6c48 | DST: 0x36a65a44 | SIZE: 26
# UVM_INFO dma_driver.sv(28) @ 1045: uvm_test_top.env.agt.drv [DRV] Driving -> SRC: 0xb462744c | DST: 0x24a2c890 | SIZE: 45
# UVM_INFO dma_driver.sv(28) @ 1065: uvm_test_top.env.agt.drv [DRV] Driving -> SRC: 0xd2543348 | DST: 0xd3043dd8 | SIZE: 186
# UVM_INFO dma_driver.sv(28) @ 1085: uvm_test_top.env.agt.drv [DRV] Driving -> SRC: 0xde5ea2c8 | DST: 0x292e3740 | SIZE: 142
# UVM_INFO dma_driver.sv(28) @ 1115: uvm_test_top.env.agt.drv [DRV] Driving -> SRC: 0xa0e75ed8 | DST: 0x2426c868 | SIZE: 157
# UVM_INFO dma_driver.sv(28) @ 1135: uvm_test_top.env.agt.drv [DRV] Driving -> SRC: 0x5e128408 | DST: 0xa292eef0 | SIZE: 239
# UVM_INFO dma_driver.sv(28) @ 1155: uvm_test_top.env.agt.drv [DRV] Driving -> SRC: 0x4a00b5e0 | DST: 0x446bd15c | SIZE: 244
# UVM_INFO dma_driver.sv(28) @ 1185: uvm_test_top.env.agt.drv [DRV] Driving -> SRC: 0x5b111900 | DST: 0xf232f0ac | SIZE: 189
# UVM_INFO dma_driver.sv(28) @ 1235: uvm_test_top.env.agt.drv [DRV] Driving -> SRC: 0xdb8c0304 | DST: 0xe4e24748 | SIZE: 77
# UVM_INFO dma_driver.sv(28) @ 1255: uvm_test_top.env.agt.drv [DRV] Driving -> SRC: 0x965c91c4 | DST: 0xaef761d8 | SIZE: 166
# UVM_INFO dma_driver.sv(28) @ 1275: uvm_test_top.env.agt.drv [DRV] Driving -> SRC: 0x02c49ff8 | DST: 0x7454624c | SIZE: 171
# UVM_INFO dma_driver.sv(28) @ 1305: uvm_test_top.env.agt.drv [DRV] Driving -> SRC: 0x4f61e4b8 | DST: 0xabbcb05c | SIZE: 141
# UVM_INFO dma_driver.sv(28) @ 1325: uvm_test_top.env.agt.drv [DRV] Driving -> SRC: 0x3ca0844c | DST: 0xd1dacbac | SIZE: 58
# UVM_INFO dma_driver.sv(28) @ 1365: uvm_test_top.env.agt.drv [DRV] Driving -> SRC: 0xf0c01820 | DST: 0xe4a81248 | SIZE: 150
# UVM_INFO dma_driver.sv(28) @ 1385: uvm_test_top.env.agt.drv [DRV] Driving -> SRC: 0x854664a8 | DST: 0x5fa44604 | SIZE: 126
# UVM_INFO dma_driver.sv(28) @ 1405: uvm_test_top.env.agt.drv [DRV] Driving -> SRC: 0x19880684 | DST: 0x297ed114 | SIZE: 155
# UVM_INFO dma_driver.sv(28) @ 1425: uvm_test_top.env.agt.drv [DRV] Driving -> SRC: 0x6207b4c8 | DST: 0x60c845d4 | SIZE: 73
# UVM_INFO dma_driver.sv(28) @ 1445: uvm_test_top.env.agt.drv [DRV] Driving -> SRC: 0xe36505b0 | DST: 0xbb639408 | SIZE: 27
# UVM_INFO dma_driver.sv(28) @ 1465: uvm_test_top.env.agt.drv [DRV] Driving -> SRC: 0x51e5b50c | DST: 0xf4022c34 | SIZE: 181
# UVM_INFO dma_driver.sv(28) @ 1485: uvm_test_top.env.agt.drv [DRV] Driving -> SRC: 0x6fac34f4 | DST: 0x8b844344 | SIZE: 58
# UVM_INFO dma_driver.sv(28) @ 1505: uvm_test_top.env.agt.drv [DRV] Driving -> SRC: 0x082dc320 | DST: 0x3d9f87d8 | SIZE: 120
# UVM_INFO dma_driver.sv(28) @ 1545: uvm_test_top.env.agt.drv [DRV] Driving -> SRC: 0x8bd97f68 | DST: 0x1481bec8 | SIZE: 9
# UVM_INFO dma_driver.sv(28) @ 1565: uvm_test_top.env.agt.drv [DRV] Driving -> SRC: 0x33ee81e4 | DST: 0x519e09d4 | SIZE: 191
# UVM_INFO dma_driver.sv(28) @ 1605: uvm_test_top.env.agt.drv [DRV] Driving -> SRC: 0x66476bb4 | DST: 0x19b56d6c | SIZE: 229
# UVM_INFO dma_driver.sv(28) @ 1655: uvm_test_top.env.agt.drv [DRV] Driving -> SRC: 0xb427f978 | DST: 0x8e111544 | SIZE: 122
# UVM_INFO dma_driver.sv(28) @ 1685: uvm_test_top.env.agt.drv [DRV] Driving -> SRC: 0x67e123bc | DST: 0x8f390c60 | SIZE: 55
# UVM_INFO dma_driver.sv(28) @ 1705: uvm_test_top.env.agt.drv [DRV] Driving -> SRC: 0x5f30c4f4 | DST: 0x9f2b15f0 | SIZE: 57
# UVM_INFO dma_driver.sv(28) @ 1725: uvm_test_top.env.agt.drv [DRV] Driving -> SRC: 0x4098a2d4 | DST: 0x3f39624c | SIZE: 239
# UVM_INFO dma_driver.sv(28) @ 1765: uvm_test_top.env.agt.drv [DRV] Driving -> SRC: 0xb3126dd8 | DST: 0x7b856bd0 | SIZE: 209
# UVM_INFO dma_driver.sv(28) @ 1795: uvm_test_top.env.agt.drv [DRV] Driving -> SRC: 0xcfade88c | DST: 0x7ddc1f9c | SIZE: 184
# UVM_INFO dma_driver.sv(28) @ 1825: uvm_test_top.env.agt.drv [DRV] Driving -> SRC: 0x5aa4d974 | DST: 0xc7b917ec | SIZE: 192
# UVM_INFO dma_driver.sv(28) @ 1855: uvm_test_top.env.agt.drv [DRV] Driving -> SRC: 0x517f18e8 | DST: 0xaf91de30 | SIZE: 135
# UVM_INFO dma_driver.sv(28) @ 1885: uvm_test_top.env.agt.drv [DRV] Driving -> SRC: 0xc1daaea4 | DST: 0xd7ec27a0 | SIZE: 239
# UVM_INFO dma_driver.sv(28) @ 1905: uvm_test_top.env.agt.drv [DRV] Driving -> SRC: 0xf6d49e80 | DST: 0x0da2e068 | SIZE: 17
# UVM_INFO dma_driver.sv(28) @ 1945: uvm_test_top.env.agt.drv [DRV] Driving -> SRC: 0x1a83444c | DST: 0x052eb2f8 | SIZE: 243
# UVM_INFO dma_driver.sv(28) @ 1985: uvm_test_top.env.agt.drv [DRV] Driving -> SRC: 0xade5c710 | DST: 0x1a610778 | SIZE: 208
# UVM_INFO dma_driver.sv(28) @ 2015: uvm_test_top.env.agt.drv [DRV] Driving -> SRC: 0x640ac244 | DST: 0xc387c6a0 | SIZE: 236
# UVM_INFO dma_driver.sv(28) @ 2055: uvm_test_top.env.agt.drv [DRV] Driving -> SRC: 0xa6224bc0 | DST: 0x6b23ad50 | SIZE: 191
# UVM_INFO dma_driver.sv(28) @ 2075: uvm_test_top.env.agt.drv [DRV] Driving -> SRC: 0xd942ab14 | DST: 0xf0586a24 | SIZE: 70
# UVM_INFO dma_driver.sv(28) @ 2095: uvm_test_top.env.agt.drv [DRV] Driving -> SRC: 0xf68f024c | DST: 0x895772ac | SIZE: 238
# UVM_INFO dma_driver.sv(28) @ 2115: uvm_test_top.env.agt.drv [DRV] Driving -> SRC: 0x4d164868 | DST: 0x1e8e16fc | SIZE: 97
# UVM_INFO dma_driver.sv(28) @ 2135: uvm_test_top.env.agt.drv [DRV] Driving -> SRC: 0x2b9a0d4c | DST: 0xdaabd464 | SIZE: 13
# UVM_INFO dma_driver.sv(28) @ 2165: uvm_test_top.env.agt.drv [DRV] Driving -> SRC: 0xeeb1c1c8 | DST: 0x07306e70 | SIZE: 177
# UVM_INFO dma_driver.sv(28) @ 2195: uvm_test_top.env.agt.drv [DRV] Driving -> SRC: 0x69cce458 | DST: 0x4b757d4c | SIZE: 133
# UVM_INFO dma_driver.sv(28) @ 2215: uvm_test_top.env.agt.drv [DRV] Driving -> SRC: 0x7954d774 | DST: 0xb230b1b0 | SIZE: 137
# UVM_INFO dma_driver.sv(28) @ 2235: uvm_test_top.env.agt.drv [DRV] Driving -> SRC: 0xb738e468 | DST: 0x92e13ddc | SIZE: 203
# UVM_INFO dma_driver.sv(28) @ 2265: uvm_test_top.env.agt.drv [DRV] Driving -> SRC: 0x2b0564d0 | DST: 0x48e02bb4 | SIZE: 92
# UVM_INFO dma_driver.sv(28) @ 2285: uvm_test_top.env.agt.drv [DRV] Driving -> SRC: 0xa8bc6c2c | DST: 0xe2bceec4 | SIZE: 252
# UVM_INFO dma_driver.sv(28) @ 2305: uvm_test_top.env.agt.drv [DRV] Driving -> SRC: 0xc8d97b20 | DST: 0xfbbe33c4 | SIZE: 30
# UVM_INFO dma_driver.sv(28) @ 2355: uvm_test_top.env.agt.drv [DRV] Driving -> SRC: 0x50a0ac84 | DST: 0x217597ec | SIZE: 45
# UVM_INFO dma_driver.sv(28) @ 2375: uvm_test_top.env.agt.drv [DRV] Driving -> SRC: 0xad3bbb6c | DST: 0xfc830f0c | SIZE: 211
# UVM_INFO dma_driver.sv(28) @ 2395: uvm_test_top.env.agt.drv [DRV] Driving -> SRC: 0x4723529c | DST: 0x90374330 | SIZE: 177
# UVM_INFO dma_driver.sv(28) @ 2415: uvm_test_top.env.agt.drv [DRV] Driving -> SRC: 0xc3f91b38 | DST: 0x706c50d0 | SIZE: 34
# UVM_INFO dma_driver.sv(28) @ 2445: uvm_test_top.env.agt.drv [DRV] Driving -> SRC: 0x28448444 | DST: 0x8ecac898 | SIZE: 89
# UVM_INFO dma_driver.sv(28) @ 2485: uvm_test_top.env.agt.drv [DRV] Driving -> SRC: 0xb7334090 | DST: 0xfa6eaef4 | SIZE: 108
# UVM_INFO dma_driver.sv(28) @ 2515: uvm_test_top.env.agt.drv [DRV] Driving -> SRC: 0xe6686fdc | DST: 0xfaf8e4cc | SIZE: 140
# UVM_INFO dma_driver.sv(28) @ 2535: uvm_test_top.env.agt.drv [DRV] Driving -> SRC: 0xe8d66b20 | DST: 0x65451514 | SIZE: 108
# UVM_INFO dma_driver.sv(28) @ 2565: uvm_test_top.env.agt.drv [DRV] Driving -> SRC: 0x261edb30 | DST: 0xd9797268 | SIZE: 143
# UVM_INFO dma_driver.sv(28) @ 2605: uvm_test_top.env.agt.drv [DRV] Driving -> SRC: 0xd5cf0b54 | DST: 0xd624f69c | SIZE: 3
# UVM_INFO dma_driver.sv(28) @ 2625: uvm_test_top.env.agt.drv [DRV] Driving -> SRC: 0xc905a124 | DST: 0x7e066db8 | SIZE: 7
# UVM_INFO dma_driver.sv(28) @ 2645: uvm_test_top.env.agt.drv [DRV] Driving -> SRC: 0xbf78a3c0 | DST: 0x70929664 | SIZE: 130
# UVM_INFO dma_driver.sv(28) @ 2665: uvm_test_top.env.agt.drv [DRV] Driving -> SRC: 0xaf7d8bac | DST: 0xbec21280 | SIZE: 54
# UVM_INFO dma_driver.sv(28) @ 2685: uvm_test_top.env.agt.drv [DRV] Driving -> SRC: 0x26ca0e04 | DST: 0x2cb2b7ac | SIZE: 63
# UVM_INFO dma_driver.sv(28) @ 2705: uvm_test_top.env.agt.drv [DRV] Driving -> SRC: 0x65700928 | DST: 0xbfc433b8 | SIZE: 241
# UVM_INFO dma_driver.sv(28) @ 2735: uvm_test_top.env.agt.drv [DRV] Driving -> SRC: 0x5c3dc390 | DST: 0x7fda28d4 | SIZE: 217
# UVM_INFO dma_driver.sv(28) @ 2755: uvm_test_top.env.agt.drv [DRV] Driving -> SRC: 0x8ba35bb8 | DST: 0x2d55c8d0 | SIZE: 40
# UVM_INFO dma_seq.sv(22) @ 2785: uvm_test_top.env.agt.sqr@@seq [SEQ] Finished pumping 100 transactions.
# UVM_INFO verilog_src/uvm-1.1d/src/base/uvm_objection.svh(1267) @ 2835: reporter [TEST_DONE] 'run' phase is ready to proceed to the 'extract' phase
# 
# --- UVM Report Summary ---
# 
# ** Report counts by severity
# UVM_INFO :  106
# UVM_WARNING :    0
# UVM_ERROR :    0
# UVM_FATAL :    0
# ** Report counts by id
# [DRV]   100
# [Questa UVM]     2
# [RNTST]     1
# [SEQ]     2
# [TEST_DONE]     1
# ** Note: $finish    : /mnt/storage_A/eda_tools/questa-quartus/questa_fse/linux_x86_64/../verilog_src/uvm-1.1d/src/base/uvm_root.svh(430)
#    Time: 2835 ns  Iteration: 54  Instance: /tb_top
# End time: 12:08:54 on May 15,2026, Elapsed time: 0:00:08
# Errors: 0, Warnings: 0
